Importing Data
…
read_csv has a number of other arguments which may be useful, see help(read_csv) for more details.

Tibbles

You may have noticed read_csv does not return a standard data.frame, it returns a tibble. A tibble is very similar to a data.frame but it has a number advantages. By default printing a tibble only shows the first 10 rows. This prevent accidently flooding your screen when printing a large table.

A data.frame can be converted to a tibble using the as_tibble function.

library(tibble)

df <- data.frame(Letters = LETTERS, Numbers = 1:26)
as_tibble(df)

## # A tibble: 26 × 2
##    Letters Numbers
##     <fctr>   <int>
## 1        A       1
## 2        B       2
## 3        C       3
## 4        D       4
## 5        E       5
## 6        F       6
## 7        G       7
## 8        H       8
## 9        I       9
## 10       J      10
## # ... with 16 more rows

Tibbles can be created directly using the tibble function. Creating tibbles does not convert character vectors into factors, it does not convert columns names, and variables can refer to previous variables.

library(tibble)

tibble(
  Letters = LETTERS, 
  Numbers = 1:26, 
  `:)` = paste0(Letters, Numbers))

## # A tibble: 26 × 3
##    Letters Numbers  `:)`
##      <chr>   <int> <chr>
## 1        A       1    A1
## 2        B       2    B2
## 3        C       3    C3
## 4        D       4    D4
## 5        E       5    E5
## 6        F       6    F6
## 7        G       7    G7
## 8        H       8    H8
## 9        I       9    I9
## 10       J      10   J10
## # ... with 16 more rows
…
